{
    "page": 1,
    "total_results": 99,
    "total_pages": 5,
    "results": [
      {
        "vote_count": 11555,
        "id": 597,
        "video": false,
        "vote_average": 7.7,
        "title": "Titanic",
        "popularity": 40.286,
        "poster_path": "/kHXEpyfl6zqn8a6YuozZUujufXf.jpg",
        "original_language": "en",
        "original_title": "Titanic",
        "genre_ids": [
          18,
          10749,
          53
        ],
        "backdrop_path": "/vFUI5obFtx4IdhP6k8Om5ezHTrk.jpg",
        "adult": false,
        "overview": "84 years later, a 101-year-old woman named Rose DeWitt Bukater tells the story to her granddaughter Lizzy Calvert, Brock Lovett, Lewis Bodine, Bobby Buell and Anatoly Mikailavich on the Keldysh about her life set in April 10th 1912, on a ship called Titanic when young Rose boards the departing ship with the upper-class passengers and her mother, Ruth DeWitt Bukater, and her fiancé, Caledon Hockley. Meanwhile, a drifter and artist named Jack Dawson and his best friend Fabrizio De Rossi win third-class tickets to the ship in a game. And she explains the whole story from departure until the death of Titanic on its first and last voyage April 15th, 1912 at 2:20 in the morning.",
        "release_date": "1997-11-18"
      },
      {
        "vote_count": 11,
        "id": 86938,
        "video": false,
        "vote_average": 6.1,
        "title": "S.O.S. Titanic",
        "popularity": 7.183,
        "poster_path": "/bR49KAYEBHm0WNESSsHSxLhUkhx.jpg",
        "original_language": "en",
        "original_title": "S.O.S. Titanic",
        "genre_ids": [
          36,
          18,
          53
        ],
        "backdrop_path": "/wl2zUUC1OP8NkKgXcoNTZzvPIkn.jpg",
        "adult": false,
        "overview": "The Titanic disaster is depicted as seen through the eyes of one couple in each of the three classes on board.",
        "release_date": "1979-09-23"
      },
      {
        "vote_count": 72,
        "id": 44918,
        "video": false,
        "vote_average": 3.2,
        "title": "Titanic 2",
        "popularity": 11.75,
        "poster_path": "/tUSMxX60DGkTIoiDnUNNrJLtP3t.jpg",
        "original_language": "en",
        "original_title": "Titanic II",
        "genre_ids": [
          28,
          12,
          53
        ],
        "backdrop_path": "/9nost5nL1EaqgcGpOpC550M0x9A.jpg",
        "adult": false,
        "overview": "On the 100th anniversary of the original voyage, a modern luxury liner christened \"Titanic 2,\" follows the path of its namesake. But when a tsunami hurls an ice berg into the new ship's path, the passengers and crew must fight to avoid a similar fate.",
        "release_date": "2010-08-07"
      },
      {
        "vote_count": 0,
        "id": 499371,
        "video": false,
        "vote_average": 0,
        "title": "Titanic",
        "popularity": 2.101,
        "poster_path": "/96HzElhMpJ1FxMNwWFULRiE49kX.jpg",
        "original_language": "ta",
        "original_title": "டைட்டானிக்",
        "genre_ids": [
          35,
          10749
        ],
        "backdrop_path": null,
        "adult": false,
        "overview": "Titanic is an upcoming Tamil-language romantic comedy film written and directed by M. Janakiraman and produced by C. V. Kumar.",
        "release_date": "2018-12-18"
      },
      {
        "vote_count": 26,
        "id": 11021,
        "video": false,
        "vote_average": 6.2,
        "title": "Titanic",
        "popularity": 2.903,
        "poster_path": "/h0vUPTmuxzX6ZFHlV2gNXb18TbH.jpg",
        "original_language": "de",
        "original_title": "Titanic",
        "genre_ids": [
          28,
          18,
          36
        ],
        "backdrop_path": "/nZo554S2DtQiZhK59TSzrJItD6X.jpg",
        "adult": false,
        "overview": "This little-known German film retells the true story of the British ocean liner that met a tragic fate. Ernst Fritz Fürbringer plays the president of the White Star Line, who unwisely pressed the Titanic's captain (Otto Wernicke) to make the swiftest possible crossing to New York. Interestingly, director Herbert Selpin was arrested by the Gestapo during this film's production, and German censors banned the film for its scenes of panic and terror.",
        "release_date": "1943-11-10"
      },
      {
        "vote_count": 38,
        "id": 16535,
        "video": false,
        "vote_average": 6.5,
        "title": "Titanic",
        "popularity": 2.598,
        "poster_path": "/l2ZkdW1zuOgTApWu8N5SdUkDtG6.jpg",
        "original_language": "en",
        "original_title": "Titanic",
        "genre_ids": [
          28,
          18,
          10749
        ],
        "backdrop_path": "/4MlLN6nPOZ6RDFhPcfj4OM1meyY.jpg",
        "adult": false,
        "overview": "Unhappily married, Julia Sturges decides to go to America with her two children on the unsinkable Titanic. Her husband, Richard also arranges passage on the luxury liner so as to have custody of their two children. All this fades to insignificance once the ship hits an iceberg.",
        "release_date": "1953-04-11"
      },
      {
        "vote_count": 5,
        "id": 4240,
        "video": false,
        "vote_average": 3.3,
        "title": "Titanic 2000",
        "popularity": 4.538,
        "poster_path": "/fiEKal45vMDeGcxKXHBA4rNSWRy.jpg",
        "original_language": "en",
        "original_title": "Titanic 2000",
        "genre_ids": [
          35,
          27
        ],
        "backdrop_path": null,
        "adult": false,
        "overview": "The luxury liner Titanic 2000 has set sail on its maiden voyage, and one of the passengers is the vampire Vladamina. Vladamina is searching for a woman she can turn into a vampire queen, and frustrated rock groupie Shari looks to be a perfect target. As various people get seduced and/or killed as the liner continues on its doomed voyage, Shari must chose between eternity as a living dead sex slave or a frigid grave at the bottom of the ocean.",
        "release_date": "1999-01-01"
      },
      {
        "vote_count": 14,
        "id": 44310,
        "video": false,
        "vote_average": 2,
        "title": "The Legend of the Titanic",
        "popularity": 4.528,
        "poster_path": "/jQKxvgVh5Pij3MqFU2K2G0h5rq8.jpg",
        "original_language": "it",
        "original_title": "La leggenda del Titanic",
        "genre_ids": [
          16,
          10751
        ],
        "backdrop_path": "/aVlhndRmjZB1eSPamU1KAABswGx.jpg",
        "adult": false,
        "overview": "Old Grandpa mouse tells to his grandchildren the \"real\" story of the Titanic disaster, including evil sharks, a giant octopus, and an evil whaling scheme.",
        "release_date": "1999-01-01"
      },
      {
        "vote_count": 2,
        "id": 467839,
        "video": false,
        "vote_average": 1,
        "title": "Aliens vs Titanic",
        "popularity": 4.683,
        "poster_path": "/bjwfURcGoi6e2QVPxl66G7ETGFd.jpg",
        "original_language": "en",
        "original_title": "Aliens vs Titanic",
        "genre_ids": [
          878
        ],
        "backdrop_path": "/s3EKaC7MAg1qZ3b4EO9BiCVSFPQ.jpg",
        "adult": false,
        "overview": "Offering only the finest amenities, the ‘TITAN 1C’ space-cruiser is considered the most luxurious star-liner ever built. Future spring-breakers on board are excited to be touring through space with some of the world’s elite. However, a sudden meteor storm smashes into the hull, and a deadly biological alien life form is let loose on the ship.  Seeking a suitable host, the retrovirus successfully merges with some the passengers, transforming them into seemingly invincible predators with the “touch of death”. As the ship is destroyed, the surviving passengers crash on a remote planet, and they learn that one of them is “infected”. They must quickly band together before it has a chance to slaughter them all.",
        "release_date": "2017-09-18"
      },
      {
        "vote_count": 63,
        "id": 10971,
        "video": false,
        "vote_average": 7.7,
        "title": "A Night to Remember",
        "popularity": 10.194,
        "poster_path": "/6fDhJAz6AuYWj3hAnvUL42Xlxfj.jpg",
        "original_language": "en",
        "original_title": "A Night to Remember",
        "genre_ids": [
          18,
          28,
          36
        ],
        "backdrop_path": "/qNspd6ZNjMukB6BPIxCM8WAtCCk.jpg",
        "adult": false,
        "overview": "The sinking of the Titanic is presented in a highly realistic fashion in this tense British drama. The disaster is portrayed largely from the perspective of the ocean liner's second officer, Charles Lightoller. Despite numerous warnings about ice, the ship sails on, with Capt. Edward John Smith keeping it going at a steady clip. When the doomed vessel finally hits an iceberg, the crew and passengers discover that they lack enough lifeboats, and tragedy follows.",
        "release_date": "1958-12-16"
      },
      {
        "vote_count": 51,
        "id": 24982,
        "video": false,
        "vote_average": 7.1,
        "title": "Ghosts of the Abyss",
        "popularity": 9.926,
        "poster_path": "/z8TwKAeNpbayP7iaR5iVlaOzB8k.jpg",
        "original_language": "en",
        "original_title": "Ghosts of the Abyss",
        "genre_ids": [
          99
        ],
        "backdrop_path": "/zvL04vovtDexuNj7kL8HD2GEVS1.jpg",
        "adult": false,
        "overview": "Academy Award® winning director and master storyteller James Cameron journeys back to the site of his greatest inspiration, the legendary wreck of the Titanic. With a team of the world's foremost historic and marine experts and friend Bill Paxton, he embarks on an unscripted adventure back to the final grave where nearly 1,500 souls lost their lives almost a century ago.",
        "release_date": "2003-04-10"
      },
      {
        "vote_count": 0,
        "id": 357517,
        "video": false,
        "vote_average": 0,
        "title": "Titanic",
        "popularity": 0.726,
        "poster_path": "/yi73me6Jl3zDelS9pQK5jtMRhsc.jpg",
        "original_language": "de",
        "original_title": "Titanic",
        "genre_ids": [
          18
        ],
        "backdrop_path": "/dbWq9iawF1qGeWwoCNM6eeznovc.jpg",
        "adult": false,
        "overview": "",
        "release_date": "1984-01-01"
      },
      {
        "vote_count": 31,
        "id": 24575,
        "video": false,
        "vote_average": 5.4,
        "title": "Raise the Titanic",
        "popularity": 2.493,
        "poster_path": "/7cahPJXA1fRXRwqqMVQkX3MTZy3.jpg",
        "original_language": "en",
        "original_title": "Raise the Titanic",
        "genre_ids": [
          28,
          18,
          53
        ],
        "backdrop_path": "/qH90VaspwmpCr4rVmIYn01h0rXM.jpg",
        "adult": false,
        "overview": "To obtain a supply of a rare mineral, a ship raising operation is conducted for the only known source, the Titanic.",
        "release_date": "1980-01-01"
      },
      {
        "vote_count": 2,
        "id": 46940,
        "video": false,
        "vote_average": 6.5,
        "title": "Secrets of the Titanic",
        "popularity": 2.386,
        "poster_path": "/yEvumAoCB9Z7o9dAzjxrjcwo2FQ.jpg",
        "original_language": "en",
        "original_title": "Secrets of the Titanic",
        "genre_ids": [
          99
        ],
        "backdrop_path": "/lzYDQJVtgP7zUJo7HqBGTIPufaX.jpg",
        "adult": false,
        "overview": "Dr. Robert Ballard of Woods Hole Oceanographic Institute and his research team become the first undersea explorers to locate, photograph, and explore the wreckage of the ill-fated HMS Titanic, which sank on its maiden voyage 2 1/2 mile deep in the icy waters of the Atlantic in 1912, taking 1500 passengers and crew with it to a watery grave. Utilizing dazzling state-of-the art equipment and cutting edge expertise they record the decaying remains of the ocean liner once thought \"unsinkable.\"",
        "release_date": "1986-08-07"
      },
      {
        "vote_count": 1,
        "id": 455679,
        "video": false,
        "vote_average": 10,
        "title": "Titanic",
        "popularity": 0.672,
        "poster_path": null,
        "original_language": "pt",
        "original_title": "Titanic",
        "genre_ids": [],
        "backdrop_path": null,
        "adult": false,
        "overview": "",
        "release_date": ""
      },
      {
        "vote_count": 26,
        "id": 71235,
        "video": false,
        "vote_average": 1.9,
        "title": "Titanic: The Legend Goes On",
        "popularity": 2.707,
        "poster_path": "/AhDDSMvaxPBMY44xKvbPsT2MfpG.jpg",
        "original_language": "it",
        "original_title": "Titanic - La leggenda continua",
        "genre_ids": [
          16,
          10751
        ],
        "backdrop_path": "/dxynkPX8dPg4sXwHG3vz3iU1ZGv.jpg",
        "adult": false,
        "overview": "An animated retelling of the worst passenger ship disaster in history. In this version, love blossoms between the upper-class Sir William and the blue-collar Angelica, who is hoping to find romance in America. At the same time, there are also a number of animal passengers, including talking dogs, cats and mice, who are also looking forward to arriving in the New World.",
        "release_date": "2001-07-24"
      },
      {
        "vote_count": 10,
        "id": 71241,
        "video": false,
        "vote_average": 1.8,
        "title": "In Search of the Titanic",
        "popularity": 1.778,
        "poster_path": "/hF3JzW9lrtiDHNOtrNSVxvQw1Ob.jpg",
        "original_language": "it",
        "original_title": "Tentacolino",
        "genre_ids": [
          16,
          10751
        ],
        "backdrop_path": "/fLnX8T7aoNkz0k5aHM4Xpldg5Wg.jpg",
        "adult": false,
        "overview": "Tentacolino, or \"In Search for the Titanic\" tells the story of the familiar characters Juan and Elizabeth, along with their mice friends Top Connors and Ronnie and their bring-along-dog Smile. After the five end up in a submarine accident, they’re taken to the wonderful lost city of Atlantis. There they discover a rebellion of rats who want to break free from the city and take over the world.",
        "release_date": "2004-06-17"
      },
      {
        "vote_count": 6,
        "id": 102041,
        "video": false,
        "vote_average": 6.6,
        "title": "Titanic: The Final Word with James Cameron",
        "popularity": 3.245,
        "poster_path": "/iXq6283eSEogLzVU8N911A9ehf1.jpg",
        "original_language": "en",
        "original_title": "Titanic: The Final Word with James Cameron",
        "genre_ids": [
          99,
          36
        ],
        "backdrop_path": "/oE62PtYXFFh2RCaOINRt2Cps5We.jpg",
        "adult": false,
        "overview": "Cameron brings together some the world's leading Titanic experts, including engineers, naval architects, artists and historians, to solve the lingering mysteries of why and how the 'unsinkable' ship sank.",
        "release_date": "2012-04-08"
      },
      {
        "vote_count": 3,
        "id": 489493,
        "video": false,
        "vote_average": 6,
        "title": "Titanic: 20 Years Later with James Cameron",
        "popularity": 3.025,
        "poster_path": "/zeBnlly1qpN8C3MhbC9bqdgvYfq.jpg",
        "original_language": "en",
        "original_title": "Titanic: 20 Years Later with James Cameron",
        "genre_ids": [
          99
        ],
        "backdrop_path": "/9PolVogZuHd07JIPOPTDnFAFj1p.jpg",
        "adult": false,
        "overview": "For the 20th anniversary of \"Titanic,\" James Cameron reopens the file on the disaster.",
        "release_date": "2017-11-26"
      },
      {
        "vote_count": 1,
        "id": 33369,
        "video": false,
        "vote_average": 1,
        "title": "Cinematic Titanic: Blood of the Vampires",
        "popularity": 2.744,
        "poster_path": "/4QN5cnjwwkJ76dumsMT2Lp7fiXt.jpg",
        "original_language": "en",
        "original_title": "Cinematic Titanic: Blood of the Vampires",
        "genre_ids": [],
        "backdrop_path": null,
        "adult": false,
        "overview": "The Escodero family is cursed!The mother, whom the Escodero children assumed to be dead, is actually an undead vampire who lurks in a secret basement/dungeon hidden from the rest of the house. When the kids discover this dark truth, all hell breaks loose...literally! The mother bites the son, who grows fangs and becomes consumed with blood lust. Meanwhile, all this vampire activity wreaks havoc on the daughter's romance with her handsome, dashing fiance. It all leads to a foray into the occult that ultimately proves true love can live on forever, but not before a mob of angry villagers and avenging priests take on the Devil himself in a climactic battle between good and evil. Set in nineteenth century Mexico and performed by a Filipino cast, \"Blood of the Vampires\" has something for everyone: blood-soaked action for the guys, tender romance for the ladies, and unleashed demonic rage for the frightened child within us all.",
        "release_date": "2009-03-19"
      }
    ]
  }